<?xml version="1.0" encoding="utf-8"?>
<!-- Generator: Adobe Illustrator 18.0.0, SVG Export Plug-In . SVG Version: 6.00 Build 0)  -->
<!DOCTYPE svg PUBLIC "-//W3C//DTD SVG 1.1//EN" "http://www.w3.org/Graphics/SVG/1.1/DTD/svg11.dtd">
<svg version="1.1" id="Layer_1" xmlns="http://www.w3.org/2000/svg" xmlns:xlink="http://www.w3.org/1999/xlink" x="0px" y="0px"
	 viewBox="0 0 20 20" enable-background="new 0 0 20 20" xml:space="preserve">
<g>
	<defs>
		<rect id="SVGID_73_" x="0.6" y="0.5" width="19.1" height="19.1"/>
	</defs>
	<clipPath id="SVGID_2_">
		<use xlink:href="#SVGID_73_"  overflow="visible"/>
	</clipPath>
	<path clip-path="url(#SVGID_2_)" fill="#231F20" d="M19.1,10.9c0,0.2-0.2,0.3-0.3,0.3l-1.6,0.2c-0.1,0-0.2,0.1-0.2,0.2
		c-0.2,0.7-0.4,1.3-0.8,1.9c-0.1,0.1-0.1,0.2,0,0.3c0,0,0.6,0.8,1,1.3c0.1,0.1,0.1,0.3,0,0.5c-0.4,0.4-0.7,0.8-1.2,1.2
		c-0.1,0.1-0.3,0.1-0.5,0l-1.3-1c-0.1-0.1-0.2-0.1-0.3,0c-0.6,0.4-1.3,0.6-1.9,0.8c-0.1,0-0.2,0.1-0.2,0.2c0,0-0.2,1-0.3,1.6
		c0,0.2-0.2,0.3-0.3,0.3c-0.5,0.1-1.1,0.1-1.7,0c-0.2,0-0.3-0.2-0.3-0.3l-0.2-1.6c0-0.1-0.1-0.2-0.2-0.2c-0.7-0.2-1.3-0.4-1.9-0.8
		c0,0-0.1,0-0.2,0c-0.1,0-0.1,0-0.2,0.1c0,0-0.8,0.6-1.3,1c-0.1,0.1-0.3,0.1-0.5,0c-0.4-0.4-0.8-0.7-1.2-1.2c-0.1-0.1-0.1-0.3,0-0.5
		l1-1.3c0.1-0.1,0.1-0.2,0-0.3c-0.4-0.6-0.6-1.3-0.8-1.9c0-0.1-0.1-0.2-0.2-0.2c0,0-1-0.2-1.6-0.3c-0.2,0-0.3-0.2-0.3-0.3
		c-0.1-0.5-0.1-1.1,0-1.7c0-0.2,0.2-0.3,0.3-0.3l1.6-0.2c0.1,0,0.2-0.1,0.2-0.2c0.2-0.7,0.4-1.3,0.8-1.9c0.1-0.1,0.1-0.2,0-0.3
		c0,0-0.6-0.8-1-1.3c-0.1-0.1-0.1-0.3,0-0.5C3.7,3.9,4,3.5,4.5,3.2c0.1-0.1,0.3-0.1,0.5,0l1.3,1c0.1,0.1,0.2,0.1,0.3,0
		c0.6-0.4,1.3-0.6,1.9-0.8c0.1,0,0.2-0.1,0.2-0.2c0,0,0.2-1,0.3-1.6c0-0.2,0.2-0.3,0.3-0.3c0.5-0.1,1.1-0.1,1.7,0
		c0.2,0,0.3,0.2,0.3,0.3l0.2,1.6c0,0.1,0.1,0.2,0.2,0.2c0.7,0.2,1.3,0.4,1.9,0.8c0.1,0.1,0.2,0.1,0.3,0c0,0,0.8-0.6,1.3-1
		c0.1-0.1,0.3-0.1,0.5,0c0.4,0.4,0.8,0.7,1.2,1.2c0.1,0.1,0.1,0.3,0,0.5l-1,1.3c-0.1,0.1-0.1,0.2,0,0.3c0.4,0.6,0.6,1.3,0.8,1.9
		c0,0.1,0.1,0.2,0.2,0.2c0,0,1,0.2,1.6,0.3c0.2,0,0.3,0.2,0.3,0.3C19.2,9.8,19.2,10.4,19.1,10.9 M19.7,9.2c0-0.4-0.4-0.8-0.8-0.9
		c-0.5-0.1-1.1-0.2-1.4-0.2c-0.2-0.6-0.4-1.2-0.7-1.7l0.9-1.2c0.3-0.4,0.3-0.9,0-1.2c-0.4-0.5-0.8-0.9-1.3-1.3
		c-0.3-0.3-0.8-0.3-1.2,0c-0.4,0.3-0.9,0.7-1.2,0.9c-0.5-0.3-1.1-0.6-1.7-0.7L12,1.4c-0.1-0.4-0.4-0.8-0.9-0.8
		c-0.6-0.1-1.2-0.1-1.8,0C8.9,0.6,8.5,1,8.4,1.4C8.4,1.9,8.3,2.5,8.2,2.8C7.6,3,7,3.2,6.5,3.6L5.3,2.7c-0.4-0.3-0.9-0.3-1.2,0
		C3.6,3.1,3.2,3.5,2.8,4c-0.3,0.3-0.3,0.8,0,1.2c0.3,0.4,0.7,0.9,0.9,1.2C3.4,6.9,3.1,7.5,2.9,8.1L1.5,8.3C1.1,8.4,0.7,8.8,0.7,9.2
		c-0.1,0.6-0.1,1.2,0,1.8c0,0.4,0.4,0.8,0.8,0.9C2,11.9,2.6,12,2.9,12.1c0.2,0.6,0.4,1.2,0.7,1.7L2.8,15c-0.3,0.4-0.3,0.9,0,1.2
		c0.4,0.5,0.8,0.9,1.3,1.3c0.3,0.3,0.8,0.3,1.2,0c0.4-0.3,0.9-0.7,1.2-0.9c0.5,0.3,1.1,0.6,1.7,0.7l0.2,1.4c0.1,0.4,0.4,0.8,0.9,0.8
		c0.3,0,0.6,0,0.9,0c0.3,0,0.6,0,0.9,0c0.4,0,0.8-0.4,0.9-0.8c0.1-0.5,0.2-1.1,0.2-1.4c0.6-0.2,1.2-0.4,1.7-0.7l1.2,0.9
		c0.4,0.3,0.9,0.3,1.2,0c0.5-0.4,0.9-0.8,1.3-1.3c0.3-0.3,0.3-0.8,0-1.2c-0.3-0.4-0.7-0.9-0.9-1.2c0.3-0.5,0.6-1.1,0.7-1.7l1.4-0.2
		c0.4-0.1,0.8-0.4,0.8-0.9C19.8,10.4,19.8,9.8,19.7,9.2"/>
	<path clip-path="url(#SVGID_2_)" fill="#231F20" d="M10.2,12.5c-1.3,0-2.4-1.1-2.4-2.4c0-1.3,1.1-2.4,2.4-2.4
		c1.3,0,2.4,1.1,2.4,2.4C12.6,11.4,11.5,12.5,10.2,12.5 M10.2,7.1c-1.6,0-3,1.3-3,3c0,1.6,1.3,3,3,3c1.6,0,3-1.3,3-3
		C13.2,8.4,11.8,7.1,10.2,7.1"/>
	<path clip-path="url(#SVGID_2_)" fill="#231F20" d="M8.4,5.6c0-0.2-0.2-0.3-0.3-0.3c0,0-2.3,0.3-2.6,2.6c0,0.2,0.1,0.3,0.2,0.3
		c0,0,0,0,0,0C5.9,8.3,6,8.2,6,8c0.3-1.9,2.1-2.1,2.1-2.1C8.3,5.9,8.4,5.7,8.4,5.6"/>
</g>
</svg>
