<?xml version="1.0" encoding="utf-8"?>
<!-- Generator: Adobe Illustrator 18.0.0, SVG Export Plug-In . SVG Version: 6.00 Build 0)  -->
<!DOCTYPE svg PUBLIC "-//W3C//DTD SVG 1.1//EN" "http://www.w3.org/Graphics/SVG/1.1/DTD/svg11.dtd">
<svg version="1.1" id="Layer_1" xmlns="http://www.w3.org/2000/svg" xmlns:xlink="http://www.w3.org/1999/xlink" x="0px" y="0px"
	 viewBox="0 0 35 35" enable-background="new 0 0 35 35" xml:space="preserve">
<g>
	<defs>
		<rect id="SVGID_49_" x="0.5" y="0.6" width="33.5" height="33.6"/>
	</defs>
	<clipPath id="SVGID_2_">
		<use xlink:href="#SVGID_49_"  overflow="visible"/>
	</clipPath>
	<path clip-path="url(#SVGID_2_)" fill="#007CFF" d="M13.9,26.7L31,5.3l-11.5,27L13.9,26.7z M9.2,26.5l15.1-15.1L12.6,26.1L9.2,26.5
		z M23.4,10.3L8.3,25.4l0.4-3.3L23.4,10.3z M8.1,20.8l-5.6-5.6l27-11.5L8.1,20.8z M20.4,33.9L33.9,2c0.1-0.3,0.1-0.6-0.2-0.8h0
		c0-0.1-0.1-0.2-0.2-0.3c0,0,0,0,0,0c-0.2-0.2-0.5-0.3-0.8-0.2L0.9,14.3c-0.4,0.2-0.5,0.6-0.4,0.9c0,0.1,0.1,0.2,0.2,0.2
		c0.1,0.1,0.1,0.1,0.2,0.1c0,0.1,0.1,0.1,0.1,0.2L7.3,22l-0.6,5c0,0,0,0,0,0c-0.2,0.3-0.1,0.7,0.1,0.9c0.2,0.2,0.5,0.3,0.8,0.2
		c0,0,0.1,0,0.1,0l5-0.6l6.2,6.2c0.1,0.1,0.1,0.1,0.2,0.1c0,0.1,0.1,0.1,0.1,0.2c0.1,0.1,0.1,0.1,0.2,0.2
		C19.8,34.4,20.2,34.2,20.4,33.9"/>
</g>
</svg>
