<?xml version="1.0" encoding="utf-8"?>
<!-- Generator: Adobe Illustrator 18.0.0, SVG Export Plug-In . SVG Version: 6.00 Build 0)  -->
<!DOCTYPE svg PUBLIC "-//W3C//DTD SVG 1.1//EN" "http://www.w3.org/Graphics/SVG/1.1/DTD/svg11.dtd">
<svg version="1.1" id="Layer_1" xmlns="http://www.w3.org/2000/svg" xmlns:xlink="http://www.w3.org/1999/xlink" x="0px" y="0px"
	 viewBox="0 0 35 35" enable-background="new 0 0 35 35" xml:space="preserve">
<g>
	<defs>
		<rect id="SVGID_141_" x="44.3" y="38.1" width="33.8" height="32.8"/>
	</defs>
	<clipPath id="SVGID_2_">
		<use xlink:href="#SVGID_141_"  overflow="visible"/>
	</clipPath>
	<g clip-path="url(#SVGID_2_)">
		<defs>
			<rect id="SVGID_143_" x="44.3" y="38.1" width="33.8" height="32.8"/>
		</defs>
		<clipPath id="SVGID_4_">
			<use xlink:href="#SVGID_143_"  overflow="visible"/>
		</clipPath>
		<g opacity="0.6" clip-path="url(#SVGID_4_)">
			<g>
				<defs>
					<rect id="SVGID_145_" x="34.6" y="30.7" width="53.2" height="40.8"/>
				</defs>
				<clipPath id="SVGID_6_">
					<use xlink:href="#SVGID_145_"  overflow="visible"/>
				</clipPath>
			</g>
		</g>
	</g>
</g>
<g>
	<defs>
		<rect id="SVGID_202_" x="5.2" y="0.5" width="24.9" height="33.5"/>
	</defs>
	<clipPath id="SVGID_8_">
		<use xlink:href="#SVGID_202_"  overflow="visible"/>
	</clipPath>
	<path clip-path="url(#SVGID_8_)" fill="#FFCA28" d="M5.2,34V3.1h10c0-1.4,1.1-2.6,2.5-2.6c1.4,0,2.5,1.1,2.5,2.6h10V34H5.2z
		 M17.6,1.8c-0.7,0-1.2,0.6-1.2,1.3c0,0.7,0.6,1.3,1.2,1.3c0.7,0,1.2-0.6,1.2-1.3C18.9,2.4,18.3,1.8,17.6,1.8 M27.6,5.7h-5.8
		l0.5,1.5c2.3,0.5,2.8,2,2.8,3.7H10.1c0-1.6,0.6-3,2.8-3.6l0.5-1.6H7.7v25.7h19.9V5.7z M18.4,15.1h-8.3v-0.9h8.3V15.1z M25.1,17.7
		H10.1v-0.9h14.9V17.7z M20.9,20.3H10.1v-0.9h10.8V20.3z M18.4,22.8h-8.3V22h8.3V22.8z M24.2,25.4H10.1v-0.9h14.1V25.4z"/>
</g>
</svg>
