<?xml version="1.0" encoding="utf-8"?>
<!-- Generator: Adobe Illustrator 18.0.0, SVG Export Plug-In . SVG Version: 6.00 Build 0)  -->
<!DOCTYPE svg PUBLIC "-//W3C//DTD SVG 1.1//EN" "http://www.w3.org/Graphics/SVG/1.1/DTD/svg11.dtd">
<svg version="1.1" id="Layer_1" xmlns="http://www.w3.org/2000/svg" xmlns:xlink="http://www.w3.org/1999/xlink" x="0px" y="0px"
	 viewBox="0 0 40 40" enable-background="new 0 0 40 40" xml:space="preserve">
<path fill="#D54C41" d="M20.2,39.3c10.6,0,19.2-8.6,19.2-19.2S30.8,0.9,20.2,0.9S1,9.5,1,20.1S9.6,39.3,20.2,39.3"/>
<path fill="#FFFFFF" d="M26.4,19.1h-8.3v2.8h5.1c-0.8,2.4-3,4.2-5.7,4.2c-3.3,0-6-2.7-6-6c0-3.3,2.7-6,6-6c1.7,0,3.2,0.7,4.2,1.8
	l2-2.2c-1.6-1.6-3.8-2.6-6.3-2.6c-4.9,0-8.9,4-8.9,8.9s4,8.9,8.9,8.9c4.3,0,8.1-3.1,8.9-7.2V19.1z"/>
<polygon fill="#FFFFFF" points="31.8,19.1 30.1,19.1 30.1,17.4 28.7,17.4 28.7,19.1 27,19.1 27,20.6 28.7,20.6 28.7,22.3 30.1,22.3 
	30.1,20.6 31.8,20.6 "/>
</svg>
