<?xml version="1.0" encoding="utf-8"?>
<!-- Generator: Adobe Illustrator 18.0.0, SVG Export Plug-In . SVG Version: 6.00 Build 0)  -->
<!DOCTYPE svg PUBLIC "-//W3C//DTD SVG 1.1//EN" "http://www.w3.org/Graphics/SVG/1.1/DTD/svg11.dtd">
<svg version="1.1" id="Layer_1" xmlns="http://www.w3.org/2000/svg" xmlns:xlink="http://www.w3.org/1999/xlink" x="0px" y="0px"
	 viewBox="0 0 20 20" enable-background="new 0 0 20 20" xml:space="preserve">
<g>
	<defs>
		<rect id="SVGID_71_" x="0.6" y="0.4" width="19.1" height="19.1"/>
	</defs>
	<clipPath id="SVGID_2_">
		<use xlink:href="#SVGID_71_"  overflow="visible"/>
	</clipPath>
	<path clip-path="url(#SVGID_2_)" fill="#231F20" d="M3.9,3.7c1.7-1.7,3.9-2.6,6.3-2.6c2.4,0,4.6,0.9,6.3,2.6C18.1,5.4,19,7.6,19,10
		c0,2.4-0.9,4.6-2.6,6.3c-1.7,1.7-3.9,2.6-6.3,2.6c-2.4,0-4.6-0.9-6.3-2.6c-1.7-1.7-2.6-3.9-2.6-6.3C1.4,7.6,2.3,5.4,3.9,3.7
		 M10.2,19.4c2.5,0,4.9-1,6.7-2.8c1.8-1.8,2.8-4.2,2.8-6.7c0-2.5-1-4.9-2.8-6.7c-1.8-1.8-4.2-2.8-6.7-2.8c-2.5,0-4.9,1-6.7,2.8
		C1.7,5.1,0.8,7.5,0.8,10c0,2.5,1,4.9,2.8,6.7C5.3,18.4,7.7,19.4,10.2,19.4"/>
	<path clip-path="url(#SVGID_2_)" fill="none" stroke="#000000" stroke-width="0.2452" stroke-miterlimit="10" d="M3.9,3.7
		c1.7-1.7,3.9-2.6,6.3-2.6c2.4,0,4.6,0.9,6.3,2.6C18.1,5.4,19,7.6,19,10c0,2.4-0.9,4.6-2.6,6.3c-1.7,1.7-3.9,2.6-6.3,2.6
		c-2.4,0-4.6-0.9-6.3-2.6c-1.7-1.7-2.6-3.9-2.6-6.3C1.4,7.6,2.3,5.4,3.9,3.7z M10.2,19.4c2.5,0,4.9-1,6.7-2.8
		c1.8-1.8,2.8-4.2,2.8-6.7c0-2.5-1-4.9-2.8-6.7c-1.8-1.8-4.2-2.8-6.7-2.8c-2.5,0-4.9,1-6.7,2.8C1.7,5.1,0.8,7.5,0.8,10
		c0,2.5,1,4.9,2.8,6.7C5.3,18.4,7.7,19.4,10.2,19.4z"/>
</g>
<rect x="9.9" y="7.9" fill="#231F20" width="0.6" height="6.5"/>
<rect x="9.9" y="7.9" fill="none" stroke="#000000" stroke-width="0.2452" stroke-miterlimit="10" width="0.6" height="6.5"/>
<rect x="9.9" y="5.6" fill="#231F20" width="0.6" height="1.2"/>
<rect x="9.9" y="5.6" fill="none" stroke="#000000" stroke-width="0.2452" stroke-miterlimit="10" width="0.6" height="1.2"/>
</svg>
