<?xml version="1.0" encoding="utf-8"?>
<!-- Generator: Adobe Illustrator 18.0.0, SVG Export Plug-In . SVG Version: 6.00 Build 0)  -->
<!DOCTYPE svg PUBLIC "-//W3C//DTD SVG 1.1//EN" "http://www.w3.org/Graphics/SVG/1.1/DTD/svg11.dtd">
<svg version="1.1" id="Layer_1" xmlns="http://www.w3.org/2000/svg" xmlns:xlink="http://www.w3.org/1999/xlink" x="0px" y="0px"
	 viewBox="0 0 35 35" enable-background="new 0 0 35 35" xml:space="preserve">
<g>
	<defs>
		<rect id="SVGID_141_" x="0.8" y="0.5" width="33.8" height="32.8"/>
	</defs>
	<clipPath id="SVGID_2_">
		<use xlink:href="#SVGID_141_"  overflow="visible"/>
	</clipPath>
	<g clip-path="url(#SVGID_2_)">
		<defs>
			<rect id="SVGID_143_" x="0.8" y="0.5" width="33.8" height="32.8"/>
		</defs>
		<clipPath id="SVGID_4_">
			<use xlink:href="#SVGID_143_"  overflow="visible"/>
		</clipPath>
		<g opacity="0.6" clip-path="url(#SVGID_4_)">
			<g>
				<defs>
					<rect id="SVGID_145_" x="-8.9" y="-6.9" width="53.2" height="40.8"/>
				</defs>
				<clipPath id="SVGID_6_">
					<use xlink:href="#SVGID_145_"  overflow="visible"/>
				</clipPath>
				<path clip-path="url(#SVGID_6_)" d="M34.6,28.4l0-0.3c-0.2-2.6-2.4-4.2-5-4.7c-0.2-0.2-0.4-0.6-0.1-1.3c1-0.5,1.7-1.5,2.1-2.6
					c0.1,0,0.2,0.1,0.3,0.1c0.4,0,0.7-0.3,0.7-0.8S32.2,18,31.8,18c0,0-0.1,0-0.1,0c-0.1-2.4-1.9-4.2-4.1-4.2s-4,1.9-4.1,4.2
					c-0.3,0-0.6,0.4-0.6,0.7c0,0.4,0.3,0.8,0.7,0.8c0,0,0.1,0,0.1,0c0.3,1,0.9,1.9,1.8,2.4l-0.1,0c0,0,0.8,0.4,0.1,1.4
					c0,0,0,0,0.1,0.1c-2.7,0.5-4.9,2.1-5.1,4.7h0l0,3.4c0,1,0.8,1.9,1.7,1.9h10.8c1,0,1.7-0.8,1.7-1.9C34.6,31.5,34.6,29,34.6,28.4"
					/>
				<path clip-path="url(#SVGID_6_)" d="M20.6,21.7H2.2V3.3h3.3v1.4h2.6V3.3h6.6v1.4h2.6V3.3h3.3V21.7z M21.9,22.4V2.6
					c0-0.4-0.3-0.7-0.7-0.7h-4V0.5h-2.6v1.4H8.1V0.5H5.5v1.4h-4c-0.4,0-0.7,0.3-0.7,0.7v19.8c0,0.4,0.3,0.7,0.7,0.7h19.8
					C21.7,23.1,21.9,22.8,21.9,22.4"/>
				<rect x="8.1" y="7.6" clip-path="url(#SVGID_6_)" width="2.6" height="2.8"/>
				<rect x="12.1" y="7.6" clip-path="url(#SVGID_6_)" width="2.6" height="2.8"/>
				<rect x="16" y="7.6" clip-path="url(#SVGID_6_)" width="2.6" height="2.8"/>
				<rect x="8.1" y="11.8" clip-path="url(#SVGID_6_)" width="2.6" height="2.8"/>
				<rect x="4.1" y="11.8" clip-path="url(#SVGID_6_)" width="2.6" height="2.8"/>
				<rect x="11.4" y="11.1" clip-path="url(#SVGID_6_)" width="4" height="4.2"/>
				<rect x="16" y="11.8" clip-path="url(#SVGID_6_)" width="2.6" height="2.8"/>
				<rect x="8.1" y="16" clip-path="url(#SVGID_6_)" width="2.6" height="2.8"/>
				<rect x="4.1" y="16" clip-path="url(#SVGID_6_)" width="2.6" height="2.8"/>
				<rect x="12.1" y="16" clip-path="url(#SVGID_6_)" width="2.6" height="2.8"/>
			</g>
		</g>
	</g>
</g>
</svg>
