<?xml version="1.0" encoding="utf-8"?>
<!-- Generator: Adobe Illustrator 18.0.0, SVG Export Plug-In . SVG Version: 6.00 Build 0)  -->
<!DOCTYPE svg PUBLIC "-//W3C//DTD SVG 1.1//EN" "http://www.w3.org/Graphics/SVG/1.1/DTD/svg11.dtd">
<svg version="1.1" id="Layer_1" xmlns="http://www.w3.org/2000/svg" xmlns:xlink="http://www.w3.org/1999/xlink" x="0px" y="0px"
	 viewBox="0 0 35 35" enable-background="new 0 0 35 35" xml:space="preserve">
<g>
	<defs>
		<rect id="SVGID_103_" x="0.7" y="2.9" width="33.1" height="30.6"/>
	</defs>
	<clipPath id="SVGID_2_">
		<use xlink:href="#SVGID_103_"  overflow="visible"/>
	</clipPath>
	<path clip-path="url(#SVGID_2_)" fill="#808080" d="M33.6,3c-0.1-0.1-0.4-0.2-0.5-0.1L1,17.9c-0.2,0.1-0.3,0.3-0.3,0.4
		c0,0.2,0.1,0.4,0.3,0.4l9.1,4.5c0.2,0.1,0.4,0.1,0.5,0l8.8-6.6l-6.9,7.1c-0.1,0.1-0.1,0.2-0.1,0.4l0.7,9c0,0.2,0.1,0.4,0.3,0.4
		c0.1,0,0.1,0,0.2,0c0.1,0,0.3-0.1,0.4-0.2l4.8-5.6l6,2.9c0.1,0.1,0.3,0.1,0.4,0c0.1-0.1,0.2-0.2,0.3-0.3l8.4-26.8
		C33.8,3.4,33.8,3.2,33.6,3"/>
</g>
</svg>
