<?xml version="1.0" encoding="utf-8"?>
<!-- Generator: Adobe Illustrator 18.0.0, SVG Export Plug-In . SVG Version: 6.00 Build 0)  -->
<!DOCTYPE svg PUBLIC "-//W3C//DTD SVG 1.1//EN" "http://www.w3.org/Graphics/SVG/1.1/DTD/svg11.dtd">
<svg version="1.1" id="Layer_1" xmlns="http://www.w3.org/2000/svg" xmlns:xlink="http://www.w3.org/1999/xlink" x="0px" y="0px"
	 viewBox="0 0 20 20" enable-background="new 0 0 20 20" xml:space="preserve">
<g>
	<defs>
		<rect id="SVGID_67_" x="0.6" y="3.2" width="18.7" height="13.6"/>
	</defs>
	<clipPath id="SVGID_2_">
		<use xlink:href="#SVGID_67_"  overflow="visible"/>
	</clipPath>
	<path clip-path="url(#SVGID_2_)" fill="#231F20" d="M18.6,6.5H1.4V6.3c0-0.7,0.5-1.2,1.2-1.2h0.5v0.5c0,0.2,0.2,0.4,0.4,0.4
		c0.2,0,0.4-0.2,0.4-0.4V5.1h12.4v0.5c0,0.2,0.2,0.4,0.4,0.4c0.2,0,0.4-0.2,0.4-0.4V5.1h0.5c0.7,0,1.2,0.5,1.2,1.2V6.5z M18.6,14.9
		c0,0.7-0.5,1.2-1.2,1.2H2.6c-0.7,0-1.2-0.5-1.2-1.2V7.2h17.2V14.9z M17.4,4.3h-0.5V3.5c0-0.2-0.2-0.4-0.4-0.4
		c-0.2,0-0.4,0.2-0.4,0.4v0.8H3.8V3.5c0-0.2-0.2-0.4-0.4-0.4c-0.2,0-0.4,0.2-0.4,0.4v0.8H2.6c-1.1,0-2,0.9-2,2v8.6c0,1.1,0.9,2,2,2
		h14.8c1.1,0,2-0.9,2-2V6.3C19.4,5.2,18.5,4.3,17.4,4.3"/>
</g>
</svg>
