<?xml version="1.0" encoding="utf-8"?>
<!-- Generator: Adobe Illustrator 18.0.0, SVG Export Plug-In . SVG Version: 6.00 Build 0)  -->
<!DOCTYPE svg PUBLIC "-//W3C//DTD SVG 1.1//EN" "http://www.w3.org/Graphics/SVG/1.1/DTD/svg11.dtd">
<svg version="1.1" id="Layer_1" xmlns="http://www.w3.org/2000/svg" xmlns:xlink="http://www.w3.org/1999/xlink" x="0px" y="0px"
	 viewBox="0 0 35 35" enable-background="new 0 0 35 35" xml:space="preserve">
<path fill="#007DFF" d="M23.1,31.8L22.3,31L23.1,31.8z"/>
<polygon fill="#007DFF" points="18.6,32.1 18.6,32.1 29.4,21.3 "/>
<polygon fill="#007DFF" points="12.5,2.7 30.1,20.4 30.1,20.4 "/>
<polygon fill="#007DFF" points="18.4,32.4 18.5,32.4 0.8,14.5 "/>
<g>
	<defs>
		<rect id="SVGID_19_" x="0.7" y="2.7" width="33.6" height="29.7"/>
	</defs>
	<clipPath id="SVGID_2_">
		<use xlink:href="#SVGID_19_"  overflow="visible"/>
	</clipPath>
	<path clip-path="url(#SVGID_2_)" fill="#007DFF" d="M12.1,4.3L12.1,4.3L12.1,4.3L12.1,4.3z M8.1,13.3c-1.7,0-3.1-1.4-3.1-3.1
		C5,8.4,6.4,7,8.1,7c1.7,0,3.1,1.4,3.1,3.1C11.2,11.9,9.9,13.3,8.1,13.3 M26.1,23.3l-4.6,4.6l-2.7,2.7L26.1,23.3z M28.4,20.9
		L28.4,20.9L28.4,20.9L28.4,20.9z M2.2,14l16.5,16.7l2.7-2.7l-2.7,2.7L2.2,14z M18.5,32.1l10.8-10.8l0.2-0.2l0.6-0.6l0,0l0,0
		L12.5,2.7H0.7v11.8l0.1,0.1l-0.1-0.1L18.5,32.1z"/>
</g>
<polygon fill="#007DFF" points="16,3.8 22.9,10.7 32.8,20.6 32.8,20.6 22.3,31 23.1,31.8 34.3,20.6 23.3,9.6 16.8,3 "/>
</svg>
