<?xml version="1.0" encoding="utf-8"?>
<!-- Generator: Adobe Illustrator 18.0.0, SVG Export Plug-In . SVG Version: 6.00 Build 0)  -->
<!DOCTYPE svg PUBLIC "-//W3C//DTD SVG 1.1//EN" "http://www.w3.org/Graphics/SVG/1.1/DTD/svg11.dtd">
<svg version="1.1" id="Layer_1" xmlns="http://www.w3.org/2000/svg" xmlns:xlink="http://www.w3.org/1999/xlink" x="0px" y="0px"
	 viewBox="0 0 35 35" enable-background="new 0 0 35 35" xml:space="preserve">
<g>
	<defs>
		<rect id="SVGID_216_" x="1.8" y="2.2" width="31.8" height="31.8"/>
	</defs>
	<clipPath id="SVGID_2_">
		<use xlink:href="#SVGID_216_"  overflow="visible"/>
	</clipPath>
	<path clip-path="url(#SVGID_2_)" fill="#231F20" d="M26.5,11.1c-0.5-0.4-1.3-0.4-1.7,0.1l-9,10.1l-5.2-4.2
		c-0.5-0.4-1.3-0.3-1.7,0.2c-0.4,0.5-0.3,1.3,0.2,1.7l6.1,4.9c0.2,0.2,0.5,0.3,0.8,0.3c0.3,0,0.7-0.1,0.9-0.4l9.8-11
		C27.1,12.3,27,11.6,26.5,11.1"/>
	<path clip-path="url(#SVGID_2_)" fill="#FF0000" d="M17.7,2.2C9,2.2,1.8,9.4,1.8,18.1S9,34,17.7,34s15.9-7.1,15.9-15.9
		S26.5,2.2,17.7,2.2"/>
	<path clip-path="url(#SVGID_2_)" fill="#FFFFFF" d="M12.2,24.3c-0.2,0-0.3-0.1-0.4-0.2c-0.2-0.2-0.2-0.6,0-0.9l11.1-11.1
		c0.2-0.2,0.6-0.2,0.9,0c0.2,0.2,0.2,0.6,0,0.9L12.7,24.1C12.5,24.2,12.4,24.3,12.2,24.3"/>
	<path clip-path="url(#SVGID_2_)" fill="#FFFFFF" d="M23.3,24.3c-0.2,0-0.3-0.1-0.4-0.2L11.8,13.1c-0.2-0.2-0.2-0.6,0-0.9
		c0.2-0.2,0.6-0.2,0.9,0l11.1,11.1c0.2,0.2,0.2,0.6,0,0.9C23.6,24.2,23.4,24.3,23.3,24.3"/>
</g>
</svg>
