<?xml version="1.0" encoding="utf-8"?>
<!-- Generator: Adobe Illustrator 18.0.0, SVG Export Plug-In . SVG Version: 6.00 Build 0)  -->
<!DOCTYPE svg PUBLIC "-//W3C//DTD SVG 1.1//EN" "http://www.w3.org/Graphics/SVG/1.1/DTD/svg11.dtd">
<svg version="1.1" id="Layer_1" xmlns="http://www.w3.org/2000/svg" xmlns:xlink="http://www.w3.org/1999/xlink" x="0px" y="0px"
	 viewBox="0 0 35 35" enable-background="new 0 0 35 35" xml:space="preserve">
<g>
	<defs>
		<rect id="SVGID_95_" x="2.2" y="2.1" width="31.2" height="31.2"/>
	</defs>
	<clipPath id="SVGID_2_">
		<use xlink:href="#SVGID_95_"  overflow="visible"/>
	</clipPath>
	<path clip-path="url(#SVGID_2_)" fill="#007CFF" d="M33,26c0,0-0.1-0.1-0.2-0.1l0,0l-6.7-4.8l0,0c-0.4-0.3-1.1-0.3-1.5,0.1
		c0,0-0.1,0.1-0.1,0.1c0,0,0,0.1-0.1,0.1c-0.4,0.6-0.4,0.7-0.8,1.3c-0.5,0.8-1.1,2.1-1.7,3.5c-1.9-0.3-4.7-1.9-7.8-5
		c-3.1-3.1-4.7-5.9-5-7.8c1.4-0.6,2.7-1.2,3.5-1.7c0.6-0.4,0.6-0.4,1.3-0.8c0,0,0.1,0,0.1-0.1l0,0c0,0,0.1-0.1,0.1-0.1
		c0.4-0.4,0.4-1,0.1-1.5v0L9.6,2.6h0c0-0.1-0.1-0.1-0.1-0.2C9,2,8.4,2,7.9,2.3C4.7,4.5,1.8,6.9,2.2,9.8c0.4,3.1,4.1,9.8,8.8,14.6
		c4.8,4.8,11.6,8.4,14.6,8.8c2.9,0.4,5.3-2.5,7.5-5.7C33.5,27.1,33.5,26.4,33,26"/>
</g>
</svg>
